EESchema Schematic File Version 4
EELAYER 30 0
EELAYER END
$Descr USLetter 11000 8500
encoding utf-8
Sheet 1 1
Title ""
Date ""
Rev ""
Comp ""
Comment1 ""
Comment2 ""
Comment3 ""
Comment4 ""
$EndDescr
Text Label 6300 3400 0    50   ~ 0
~RST
Text Label 6300 3600 0    50   ~ 0
AREF
Text Label 6300 3800 0    50   ~ 0
A0
Text Label 6300 3900 0    50   ~ 0
A1
Text Label 6300 4000 0    50   ~ 0
A2
Text Label 6300 4100 0    50   ~ 0
A3
Text Label 6300 4200 0    50   ~ 0
A4
Text Label 6300 4300 0    50   ~ 0
A5
Text Label 6300 4400 0    50   ~ 0
SCK
Text Label 6300 4500 0    50   ~ 0
MOSI
Text Label 6300 4600 0    50   ~ 0
MISO
Text Label 6300 4700 0    50   ~ 0
RX
Text Label 6300 4800 0    50   ~ 0
TX
Text Label 6300 4900 0    50   ~ 0
FREE
Text Label 7550 4100 2    50   ~ 0
F6
Text Label 7550 4300 2    50   ~ 0
F4
Text Label 7550 4400 2    50   ~ 0
F3
Text Label 7550 4500 2    50   ~ 0
F2
Text Label 7550 4600 2    50   ~ 0
F1
Text Label 7550 4700 2    50   ~ 0
F0
Text Label 7550 4800 2    50   ~ 0
SCL
Text Label 7550 4900 2    50   ~ 0
SDA
Wire Wire Line
	6300 3400 6500 3400
Wire Wire Line
	6300 3600 6500 3600
Wire Wire Line
	6300 3900 6500 3900
Wire Wire Line
	6300 4000 6500 4000
Wire Wire Line
	6300 4100 6500 4100
Wire Wire Line
	6300 4200 6500 4200
Wire Wire Line
	6300 4300 6500 4300
Wire Wire Line
	6300 4500 6500 4500
Wire Wire Line
	6300 4600 6500 4600
Wire Wire Line
	6300 4700 6500 4700
Wire Wire Line
	6300 4800 6500 4800
Wire Wire Line
	6300 4900 6500 4900
$Comp
L power:GND #PWR02
U 1 1 5D3787E4
P 5700 3800
F 0 "#PWR02" H 5700 3550 50  0001 C CNN
F 1 "GND" H 5705 3627 50  0000 C CNN
F 2 "" H 5700 3800 50  0001 C CNN
F 3 "" H 5700 3800 50  0001 C CNN
	1    5700 3800
	1    0    0    -1  
$EndComp
Wire Wire Line
	5700 3800 5700 3700
$Comp
L Switch:SW_Push_Dual SW5
U 1 1 5E40DD23
P 2950 3500
F 0 "SW5" H 2950 3785 50  0000 C CNN
F 1 "SW_Push_Dual" H 2950 3694 50  0000 C CNN
F 2 "malib:SW_PUSH-12mm" H 2950 3700 50  0001 C CNN
F 3 "~" H 2950 3700 50  0001 C CNN
	1    2950 3500
	1    0    0    -1  
$EndComp
$Comp
L Switch:SW_Push_Dual SW8
U 1 1 5E40ED7C
P 2950 4200
F 0 "SW8" H 2950 4485 50  0000 C CNN
F 1 "SW_Push_Dual" H 2950 4394 50  0000 C CNN
F 2 "malib:SW_PUSH-12mm" H 2950 4400 50  0001 C CNN
F 3 "~" H 2950 4400 50  0001 C CNN
	1    2950 4200
	1    0    0    -1  
$EndComp
$Comp
L Switch:SW_Push_Dual SW3
U 1 1 5E410659
P 4900 3500
F 0 "SW3" H 4900 3785 50  0000 C CNN
F 1 "SW_Push_Dual" H 4900 3694 50  0000 C CNN
F 2 "malib:SW_PUSH-12mm" H 4900 3700 50  0001 C CNN
F 3 "~" H 4900 3700 50  0001 C CNN
	1    4900 3500
	1    0    0    -1  
$EndComp
$Comp
L Switch:SW_Push_Dual SW2
U 1 1 5E41A8EA
P 3950 4200
F 0 "SW2" H 3950 4485 50  0000 C CNN
F 1 "SW_Push_Dual" H 3950 4394 50  0000 C CNN
F 2 "malib:SW_PUSH-12mm" H 3950 4400 50  0001 C CNN
F 3 "~" H 3950 4400 50  0001 C CNN
	1    3950 4200
	1    0    0    -1  
$EndComp
$Comp
L Switch:SW_Push_Dual SW6
U 1 1 5E41B298
P 4900 4200
F 0 "SW6" H 4900 4485 50  0000 C CNN
F 1 "SW_Push_Dual" H 4900 4394 50  0000 C CNN
F 2 "malib:SW_PUSH-12mm" H 4900 4400 50  0001 C CNN
F 3 "~" H 4900 4400 50  0001 C CNN
	1    4900 4200
	1    0    0    -1  
$EndComp
$Comp
L Switch:SW_Push_Dual SW1
U 1 1 5E41BB86
P 2950 4900
F 0 "SW1" H 2950 5185 50  0000 C CNN
F 1 "SW_Push_Dual" H 2950 5094 50  0000 C CNN
F 2 "malib:SW_PUSH-12mm" H 2950 5100 50  0001 C CNN
F 3 "~" H 2950 5100 50  0001 C CNN
	1    2950 4900
	1    0    0    -1  
$EndComp
$Comp
L Switch:SW_Push_Dual SW4
U 1 1 5E41C786
P 3950 4900
F 0 "SW4" H 3950 5185 50  0000 C CNN
F 1 "SW_Push_Dual" H 3950 5094 50  0000 C CNN
F 2 "malib:SW_PUSH-12mm" H 3950 5100 50  0001 C CNN
F 3 "~" H 3950 5100 50  0001 C CNN
	1    3950 4900
	1    0    0    -1  
$EndComp
$Comp
L Switch:SW_Push_Dual SW7
U 1 1 5E41CD81
P 4900 4900
F 0 "SW7" H 4900 5185 50  0000 C CNN
F 1 "SW_Push_Dual" H 4900 5094 50  0000 C CNN
F 2 "malib:SW_PUSH-12mm" H 4900 5100 50  0001 C CNN
F 3 "~" H 4900 5100 50  0001 C CNN
	1    4900 4900
	1    0    0    -1  
$EndComp
$Comp
L power:GND #PWR0102
U 1 1 5E43A79B
P 3300 3500
F 0 "#PWR0102" H 3300 3250 50  0001 C CNN
F 1 "GND" H 3305 3327 50  0000 C CNN
F 2 "" H 3300 3500 50  0001 C CNN
F 3 "" H 3300 3500 50  0001 C CNN
	1    3300 3500
	1    0    0    -1  
$EndComp
$Comp
L power:GND #PWR0103
U 1 1 5E43AD87
P 3300 4200
F 0 "#PWR0103" H 3300 3950 50  0001 C CNN
F 1 "GND" H 3305 4027 50  0000 C CNN
F 2 "" H 3300 4200 50  0001 C CNN
F 3 "" H 3300 4200 50  0001 C CNN
	1    3300 4200
	1    0    0    -1  
$EndComp
$Comp
L power:GND #PWR0104
U 1 1 5E43B1B9
P 3300 4900
F 0 "#PWR0104" H 3300 4650 50  0001 C CNN
F 1 "GND" H 3305 4727 50  0000 C CNN
F 2 "" H 3300 4900 50  0001 C CNN
F 3 "" H 3300 4900 50  0001 C CNN
	1    3300 4900
	1    0    0    -1  
$EndComp
$Comp
L power:GND #PWR0105
U 1 1 5E43BE68
P 4300 4900
F 0 "#PWR0105" H 4300 4650 50  0001 C CNN
F 1 "GND" H 4305 4727 50  0000 C CNN
F 2 "" H 4300 4900 50  0001 C CNN
F 3 "" H 4300 4900 50  0001 C CNN
	1    4300 4900
	1    0    0    -1  
$EndComp
$Comp
L power:GND #PWR0106
U 1 1 5E43C24C
P 5250 4900
F 0 "#PWR0106" H 5250 4650 50  0001 C CNN
F 1 "GND" H 5255 4727 50  0000 C CNN
F 2 "" H 5250 4900 50  0001 C CNN
F 3 "" H 5250 4900 50  0001 C CNN
	1    5250 4900
	1    0    0    -1  
$EndComp
$Comp
L power:GND #PWR0107
U 1 1 5E43C613
P 5250 4200
F 0 "#PWR0107" H 5250 3950 50  0001 C CNN
F 1 "GND" H 5255 4027 50  0000 C CNN
F 2 "" H 5250 4200 50  0001 C CNN
F 3 "" H 5250 4200 50  0001 C CNN
	1    5250 4200
	1    0    0    -1  
$EndComp
$Comp
L power:GND #PWR0108
U 1 1 5E43C9C3
P 4300 4200
F 0 "#PWR0108" H 4300 3950 50  0001 C CNN
F 1 "GND" H 4305 4027 50  0000 C CNN
F 2 "" H 4300 4200 50  0001 C CNN
F 3 "" H 4300 4200 50  0001 C CNN
	1    4300 4200
	1    0    0    -1  
$EndComp
$Comp
L power:GND #PWR0109
U 1 1 5E43DA73
P 5800 5000
F 0 "#PWR0109" H 5800 4750 50  0001 C CNN
F 1 "GND" H 5805 4827 50  0000 C CNN
F 2 "" H 5800 5000 50  0001 C CNN
F 3 "" H 5800 5000 50  0001 C CNN
	1    5800 5000
	1    0    0    -1  
$EndComp
$Comp
L power:GND #PWR0110
U 1 1 5E43DE4D
P 5250 3500
F 0 "#PWR0110" H 5250 3250 50  0001 C CNN
F 1 "GND" H 5255 3327 50  0000 C CNN
F 2 "" H 5250 3500 50  0001 C CNN
F 3 "" H 5250 3500 50  0001 C CNN
	1    5250 3500
	1    0    0    -1  
$EndComp
Wire Wire Line
	5100 3500 5250 3500
Wire Wire Line
	3150 3500 3300 3500
Wire Wire Line
	3150 4200 3300 4200
Wire Wire Line
	4150 4200 4300 4200
Wire Wire Line
	5100 4200 5250 4200
Wire Wire Line
	5100 4900 5250 4900
Wire Wire Line
	4150 4900 4300 4900
Wire Wire Line
	3200 4900 3300 4900
Wire Wire Line
	4550 3100 4550 3500
Wire Wire Line
	4550 3500 4700 3500
Wire Wire Line
	4550 3100 7650 3100
Wire Wire Line
	7650 3100 7650 4100
Wire Wire Line
	2650 2900 2650 3500
Wire Wire Line
	2650 3500 2750 3500
Wire Wire Line
	2750 4200 2500 4200
Wire Wire Line
	3500 2950 3500 4200
Wire Wire Line
	3500 4200 3750 4200
Wire Wire Line
	4700 4200 4450 4200
Wire Wire Line
	4450 3050 7750 3050
Wire Wire Line
	4700 4900 4600 4900
Wire Wire Line
	4600 4900 4600 5300
Wire Wire Line
	4600 5300 7600 5300
Wire Wire Line
	7600 5300 7600 4900
Wire Wire Line
	3750 4900 3600 4900
Wire Wire Line
	3600 4900 3600 5450
Wire Wire Line
	3600 5450 7750 5450
Wire Wire Line
	7750 5450 7750 4800
Wire Wire Line
	2750 4900 2500 4900
Wire Wire Line
	2500 4900 2500 5600
Wire Wire Line
	2500 5600 7900 5600
Wire Wire Line
	7900 5600 7900 4700
Wire Wire Line
	7750 3050 7750 4200
NoConn ~ 6300 3400
NoConn ~ 6300 3600
NoConn ~ 6300 3900
NoConn ~ 6300 4000
NoConn ~ 6300 4100
NoConn ~ 6300 4200
NoConn ~ 6300 4300
NoConn ~ 6300 4500
NoConn ~ 6300 4600
NoConn ~ 6300 4700
NoConn ~ 6300 4800
NoConn ~ 6300 4900
NoConn ~ 5100 4400
NoConn ~ 5100 3700
NoConn ~ 5100 5100
NoConn ~ 3150 5100
NoConn ~ 2750 5100
NoConn ~ 2750 4400
NoConn ~ 3150 4400
NoConn ~ 3750 4400
NoConn ~ 4150 4400
NoConn ~ 4150 5100
NoConn ~ 3750 5100
NoConn ~ 2750 3700
NoConn ~ 3150 3700
NoConn ~ 4700 3700
NoConn ~ 4700 4400
Wire Wire Line
	6500 4400 6300 4400
NoConn ~ 6300 4400
$Comp
L Connector:Conn_01x01_Female J1
U 1 1 5E4624FA
P 6000 4900
F 0 "J1" H 6028 4926 50  0000 L CNN
F 1 "Conn_01x01_Female" H 6028 4835 50  0000 L CNN
F 2 "Connector_Wire:SolderWirePad_1x01_Drill0.8mm" H 6000 4900 50  0001 C CNN
F 3 "~" H 6000 4900 50  0001 C CNN
	1    6000 4900
	1    0    0    -1  
$EndComp
$Comp
L Connector:Conn_01x01_Female J2
U 1 1 5E463FA5
P 8650 4300
F 0 "J2" H 8678 4326 50  0000 L CNN
F 1 "Conn_01x01_Female" H 8678 4235 50  0000 L CNN
F 2 "Connector_Wire:SolderWirePad_1x01_Drill0.8mm" H 8650 4300 50  0001 C CNN
F 3 "~" H 8650 4300 50  0001 C CNN
	1    8650 4300
	1    0    0    -1  
$EndComp
Wire Wire Line
	5800 4900 5800 5000
Wire Wire Line
	4450 3050 4450 4200
Wire Wire Line
	2500 4200 2500 4550
Wire Wire Line
	5700 3700 6500 3700
Wire Wire Line
	6500 3800 6150 3800
Wire Wire Line
	6150 3800 6150 4550
Wire Wire Line
	8050 2900 8050 4600
Wire Wire Line
	6500 3500 6200 3500
$Comp
L Device:R R1
U 1 1 5E529A44
P 5950 3500
F 0 "R1" V 6157 3500 50  0000 C CNN
F 1 "10k" V 6066 3500 50  0000 C CNN
F 2 "Resistor_THT:R_Axial_DIN0207_L6.3mm_D2.5mm_P10.16mm_Horizontal" V 5880 3500 50  0001 C CNN
F 3 "~" H 5950 3500 50  0001 C CNN
	1    5950 3500
	0    -1   -1   0   
$EndComp
Wire Wire Line
	5800 3500 5550 3500
Wire Wire Line
	5550 3500 5550 4550
Connection ~ 5550 4550
Wire Wire Line
	5550 4550 6150 4550
Wire Wire Line
	2650 2900 5900 2900
Wire Wire Line
	2500 4550 5550 4550
Wire Wire Line
	6200 3500 6200 3250
Connection ~ 6200 3500
Wire Wire Line
	6200 3500 6100 3500
$Comp
L Device:R R2
U 1 1 5E53C5A8
P 6050 3250
F 0 "R2" V 5843 3250 50  0000 C CNN
F 1 "10k" V 5934 3250 50  0000 C CNN
F 2 "Resistor_THT:R_Axial_DIN0207_L6.3mm_D2.5mm_P10.16mm_Horizontal" V 5980 3250 50  0001 C CNN
F 3 "~" H 6050 3250 50  0001 C CNN
	1    6050 3250
	0    1    1    0   
$EndComp
Wire Wire Line
	5900 3250 5900 2900
Connection ~ 5900 2900
Wire Wire Line
	5900 2900 8050 2900
Wire Wire Line
	7400 4500 7950 4500
Wire Wire Line
	3500 2950 7950 2950
Wire Wire Line
	7400 4200 7750 4200
Wire Wire Line
	7950 2950 7950 4500
Wire Wire Line
	7400 4600 8050 4600
Wire Wire Line
	7650 4100 7400 4100
Wire Wire Line
	7400 4900 7600 4900
Wire Wire Line
	7400 4800 7750 4800
Wire Wire Line
	7400 4700 7900 4700
Wire Wire Line
	7400 4300 8450 4300
NoConn ~ 7400 4400
NoConn ~ 7400 3800
NoConn ~ 7400 3900
NoConn ~ 7400 4000
$Comp
L Adafruit_Feather:Feather_Huzzah_ESP8266 P1
U 1 1 5E5FD8FF
P 7350 4550
F 0 "P1" H 6950 5915 50  0000 C CNN
F 1 "Feather_Huzzah_ESP8266" H 6950 5824 50  0000 C CNN
F 2 "Adafruit_FeatherWing:PCB_FeatherWing" H 7250 4750 50  0001 C CNN
F 3 "" H 7250 4750 50  0000 C CNN
	1    7350 4550
	1    0    0    -1  
$EndComp
$EndSCHEMATC
